predAbr,ora,data,numar,predPresc,web,nume,urmEOL,sfarsitDeProp
no,no,no,no,no,no,no,no,no
no,no,no,no,no,no,no,no,yes
no,no,no,no,no,no,no,no,yes
no,no,no,no,yes,no,no,no,no
no,no,no,no,no,no,no,no,no
no,no,no,no,no,no,no,no,yes
no,no,no,no,no,no,no,no,yes
no,no,no,no,no,no,no,no,no
no,no,no,no,no,no,no,no,yes
no,no,no,no,no,no,no,no,no
no,no,no,no,no,no,no,no,yes
no,no,no,no,no,no,no,no,yes
no,no,no,no,no,no,no,no,no
no,no,no,no,no,no,no,no,yes
no,no,no,no,no,no,no,no,no
no,no,no,no,no,no,no,no,yes
no,no,no,no,yes,no,no,no,no
no,no,no,no,yes,no,no,no,no
no,no,no,no,yes,no,no,no,no
no,no,no,no,no,no,no,no,yes
no,no,no,no,no,no,no,yes,yes
no,no,no,no,no,no,no,yes,yes
no,no,no,yes,no,no,no,no,no
no,no,no,no,no,no,no,no,yes
no,no,no,no,no,no,no,no,yes
no,no,no,no,no,no,no,no,yes
no,no,no,no,no,no,no,no,yes
no,no,no,no,no,no,no,no,yes
no,no,no,no,no,no,no,no,yes
no,no,no,no,no,no,no,no,yes
no,no,no,yes,no,no,no,no,no
no,no,no,no,no,no,no,yes,yes
no,no,no,no,no,no,no,no,yes
no,no,no,no,no,no,no,no,yes
no,no,no,no,no,no,no,no,yes
no,no,no,no,no,no,no,yes,yes
no,no,no,no,no,no,no,no,yes
no,no,no,no,no,no,no,no,yes
no,no,no,no,no,no,no,no,yes
no,no,no,no,no,no,no,no,yes
no,no,no,no,no,no,no,no,yes
no,no,no,no,no,no,no,no,yes
no,no,no,no,no,no,no,no,yes
no,no,no,no,no,no,no,no,yes
no,no,no,no,no,no,no,yes,yes
no,no,no,no,no,no,no,no,yes
no,no,no,no,no,no,no,no,yes
no,no,no,no,no,no,no,yes,yes
no,no,no,no,no,no,no,no,yes
no,no,no,no,no,no,no,no,yes
no,no,no,no,no,no,no,no,yes
no,no,no,no,no,no,no,yes,yes
no,no,no,no,no,no,no,yes,yes
no,no,no,no,no,no,no,no,yes
no,no,no,no,no,no,no,no,yes
no,no,no,no,no,no,no,yes,yes
no,no,no,no,no,no,no,yes,yes
no,no,no,no,no,no,no,no,yes
no,no,no,no,no,no,no,yes,yes
no,no,no,no,no,no,no,no,yes
no,no,no,no,no,no,no,yes,yes
no,no,no,no,no,no,no,yes,yes
no,no,no,no,no,no,no,no,yes
no,no,no,no,no,no,no,no,yes
no,no,no,no,no,no,no,no,yes
no,no,no,no,no,no,no,no,yes
no,no,no,no,no,no,no,no,yes
no,no,no,no,yes,no,no,no,no
no,no,no,no,no,no,no,no,yes
no,no,no,no,no,no,no,yes,yes
no,no,no,no,no,no,no,no,yes
no,no,no,no,no,no,no,no,yes
no,no,no,no,no,no,no,no,yes
no,no,no,no,no,no,no,yes,yes
no,no,no,no,no,no,no,no,yes
no,no,no,no,no,no,no,yes,yes
no,no,no,no,no,no,no,no,yes
no,no,no,no,no,no,no,no,yes
no,no,no,no,no,no,no,yes,yes
no,no,no,no,no,no,no,no,yes
no,no,no,no,no,no,no,no,yes
no,no,no,no,no,no,no,no,yes
no,no,no,no,no,no,no,no,yes
no,no,no,no,no,no,no,no,yes
no,no,no,no,no,no,no,no,yes
no,no,no,no,no,no,no,no,yes
no,no,no,no,no,no,no,no,yes
no,no,no,no,no,no,no,yes,yes
no,no,no,no,no,no,no,no,yes
no,no,no,no,no,no,no,no,yes
no,no,no,no,no,no,no,no,yes
no,no,no,no,no,no,no,yes,yes
no,no,no,no,no,no,no,no,yes
no,no,no,no,no,no,no,no,yes
no,no,no,no,no,no,no,yes,yes
no,no,no,no,no,no,no,no,yes
no,no,no,no,no,no,no,no,yes
no,no,no,no,no,no,no,no,yes
no,no,no,no,no,no,no,no,yes
no,no,no,no,no,no,no,no,yes
no,no,no,no,no,no,no,no,yes
no,no,no,no,no,no,no,no,yes
no,no,no,no,no,no,no,yes,yes
no,no,no,no,no,no,no,no,yes
no,no,no,no,no,no,no,no,yes
no,no,no,no,no,no,no,no,yes
no,no,no,no,no,no,no,no,yes
no,no,no,no,no,no,no,no,yes
no,no,no,no,no,no,no,no,yes
no,no,no,no,no,no,no,no,yes
no,no,no,no,no,no,no,yes,yes
no,no,no,no,no,no,no,yes,yes
no,no,no,no,no,no,no,yes,yes
no,no,no,no,no,no,no,no,yes
no,no,no,no,no,no,no,yes,yes
no,no,no,no,no,no,no,no,yes
no,no,no,no,no,no,no,no,yes
no,no,no,no,no,no,no,yes,yes
no,no,no,no,no,no,no,no,yes
no,no,no,no,no,no,no,no,yes
no,no,no,no,no,no,no,no,yes
no,no,no,no,no,no,no,no,yes
no,no,no,no,no,no,no,yes,yes
no,no,no,no,no,no,no,no,yes
no,no,no,no,no,no,no,no,yes
no,no,no,no,no,no,no,no,yes
no,no,no,no,no,no,no,no,yes
no,no,no,no,no,no,no,no,yes
no,no,no,no,no,no,no,no,yes
no,no,no,no,no,no,no,no,yes
no,no,no,no,no,no,no,no,yes
no,no,no,no,no,no,no,yes,yes
no,no,no,no,no,no,no,no,yes
no,no,no,no,no,no,no,yes,yes
no,no,no,no,no,no,no,yes,yes
no,no,no,no,no,no,no,no,yes
no,no,no,no,no,no,no,no,yes
no,no,no,no,no,no,no,no,yes
no,no,no,no,no,no,no,no,yes
no,no,no,no,no,no,no,yes,yes
no,no,no,no,no,no,no,no,yes
no,no,no,no,no,no,no,no,yes
no,no,no,no,no,no,no,no,yes
no,no,no,no,no,no,no,no,yes
no,no,no,no,no,no,no,yes,yes
no,no,no,no,no,no,no,no,yes
no,no,no,no,no,no,no,no,yes
no,no,no,no,no,no,no,yes,yes
no,no,no,no,no,no,no,yes,yes
no,no,no,no,no,no,no,no,yes
no,no,no,no,no,no,no,yes,yes
no,no,no,no,no,no,no,yes,yes
no,no,no,no,no,no,no,no,yes
no,no,no,no,no,no,no,no,yes
no,no,no,no,no,no,no,no,yes
no,no,no,no,no,no,no,no,yes
no,no,no,no,no,no,no,no,yes
no,no,no,no,no,no,no,yes,yes
no,no,no,no,no,no,no,no,yes
no,no,no,no,no,no,no,no,yes
no,no,no,no,no,no,no,yes,yes
no,no,no,no,no,no,no,no,yes
no,no,no,no,no,no,no,no,yes
no,no,no,no,no,no,no,no,yes
no,no,no,no,no,no,no,no,yes
no,no,no,no,no,no,no,no,yes
no,no,no,no,no,no,no,yes,yes
no,no,no,no,no,no,no,yes,yes
no,no,no,no,no,no,no,no,yes
no,no,no,no,no,no,no,yes,yes
no,no,no,no,no,no,no,yes,yes
no,no,no,no,no,no,no,no,yes
no,no,no,no,no,no,no,no,yes
no,no,no,no,no,no,no,no,yes
no,no,no,no,no,no,no,no,yes
no,no,no,no,no,no,no,no,yes
no,no,no,no,no,no,no,no,yes
no,no,no,no,no,no,no,no,yes
no,no,no,no,no,no,no,no,yes
no,no,no,no,no,no,no,yes,yes
no,no,no,no,no,no,no,yes,yes
no,no,no,no,no,no,no,yes,yes
no,no,no,no,no,no,no,no,yes
no,no,no,no,no,no,no,no,yes
no,no,no,no,no,no,no,yes,yes
no,no,no,no,no,no,no,yes,yes
no,no,no,no,no,no,no,no,yes
no,no,no,no,no,no,no,yes,yes
no,no,no,no,no,no,no,yes,yes
no,no,no,no,no,no,no,no,yes
no,no,no,no,no,no,no,yes,yes
no,no,no,no,no,no,no,yes,yes
no,no,no,no,no,no,no,yes,yes
no,no,no,no,no,no,no,yes,yes
no,no,no,no,no,no,no,yes,yes
no,no,no,no,no,no,no,no,yes
no,no,no,no,no,no,no,yes,yes
no,no,no,no,no,no,no,no,yes
no,no,no,no,no,no,no,no,yes
no,no,no,no,no,no,no,no,yes
no,no,no,no,no,no,no,no,yes
no,no,no,no,no,no,no,yes,yes
no,no,no,no,no,no,no,no,yes
no,no,no,no,no,no,no,no,yes
no,no,no,no,no,no,no,no,yes
no,no,no,no,no,no,no,no,yes
no,no,no,no,no,no,no,no,yes
no,no,no,no,no,no,no,yes,yes
no,no,no,no,no,no,no,no,yes
no,no,no,no,no,no,no,yes,yes
no,no,no,no,no,no,no,no,yes
no,no,no,no,no,no,no,no,yes
no,no,no,no,no,no,no,no,yes
no,no,no,no,no,no,no,no,yes
no,no,no,no,no,no,no,no,yes
no,no,no,no,no,no,no,no,yes
no,no,no,no,no,no,no,no,yes
no,no,no,no,no,no,no,no,yes
no,no,no,no,no,no,no,no,yes
no,no,no,no,no,no,no,yes,yes
no,no,no,no,no,no,no,no,yes
no,no,no,no,no,no,no,yes,yes
no,no,no,no,no,no,no,no,yes
no,no,no,no,no,no,no,no,yes
no,no,no,no,no,no,no,no,yes
no,no,no,no,no,no,no,no,yes
no,no,no,no,no,no,no,yes,yes
no,no,no,no,no,no,no,no,yes
no,no,no,no,no,no,no,no,yes
no,no,no,no,no,no,no,no,yes
no,no,no,no,no,no,no,yes,yes
no,no,no,no,no,no,no,no,yes
no,no,no,no,no,no,no,yes,yes
no,no,no,no,no,no,no,no,yes
no,no,no,no,no,no,no,no,yes
no,no,no,no,no,no,no,no,yes
no,no,no,no,no,no,no,yes,yes
no,no,no,no,no,no,no,no,yes
no,no,no,no,no,no,no,no,yes
no,no,no,no,no,no,no,yes,yes
no,no,no,no,no,no,no,yes,yes
no,no,no,no,no,no,no,no,yes
no,no,no,no,no,no,no,no,yes
no,no,no,no,no,no,no,no,yes
no,no,no,no,no,no,no,no,yes
no,no,no,no,no,no,no,yes,yes
no,no,no,no,no,no,no,no,yes
no,no,no,no,no,no,no,no,yes
no,no,no,no,no,no,no,no,yes
no,no,no,no,no,no,no,no,yes
no,no,no,no,no,no,no,no,yes
no,no,no,no,no,no,no,no,yes
no,no,no,no,no,no,no,yes,yes
no,no,no,no,no,no,no,no,yes
no,no,no,no,no,no,no,no,yes
no,no,no,no,no,no,no,no,yes
no,no,no,no,no,no,no,yes,yes
no,no,no,no,no,no,no,no,yes
no,no,no,no,no,no,no,yes,yes
no,no,no,no,no,no,no,no,yes
no,no,no,no,no,no,no,no,yes
no,no,no,no,no,no,no,no,yes
no,no,no,no,no,no,no,no,yes
no,no,no,no,no,no,no,no,yes
no,no,no,no,no,no,no,no,yes
no,no,no,no,no,no,no,no,yes
no,no,no,no,no,no,no,no,yes
no,no,no,no,no,no,no,no,yes
no,no,no,no,no,no,no,no,yes
no,no,no,no,no,no,no,no,yes
no,no,no,no,no,no,no,no,yes
no,no,no,no,no,no,no,no,yes
no,no,no,no,no,no,no,no,yes
no,no,no,no,no,no,no,no,yes
no,no,no,no,no,no,no,no,yes
no,no,no,no,no,no,no,no,yes
no,no,no,no,no,no,no,no,yes
no,no,no,no,no,no,no,no,yes
no,no,no,no,no,no,no,no,yes
no,no,no,no,no,no,no,no,yes
no,no,no,no,no,no,no,no,yes
no,no,no,no,no,no,no,no,yes
no,no,no,no,no,no,no,no,yes
no,no,no,no,no,no,no,no,yes
no,no,no,no,no,no,no,no,yes
no,no,no,no,no,no,no,no,yes
no,no,no,no,no,no,no,yes,yes
no,no,no,no,no,no,no,no,yes
no,no,no,no,no,no,no,no,yes
no,no,no,no,no,no,no,no,yes
no,no,no,no,no,no,no,no,yes
no,no,no,no,no,no,no,no,yes
no,no,no,no,no,no,no,no,yes
no,no,no,no,no,no,no,no,yes
no,no,no,no,no,no,no,no,yes
no,no,no,no,no,no,no,no,yes
no,no,no,no,no,no,no,no,yes
no,no,no,no,no,no,no,no,yes
no,no,no,no,no,no,no,no,yes
no,no,no,no,no,no,no,no,yes
no,no,no,no,no,no,no,no,yes
no,no,no,no,no,no,no,no,yes
no,no,no,no,no,no,no,no,yes
no,no,no,no,no,no,no,yes,yes
no,no,no,no,no,no,no,no,yes
no,no,no,no,no,no,no,no,yes
no,no,no,no,no,no,no,no,yes
no,no,no,no,no,no,no,no,yes
no,no,no,no,no,no,no,no,yes
no,no,no,no,no,no,no,no,yes
no,no,no,no,no,no,no,no,yes
no,no,no,no,no,no,no,no,yes
no,no,no,no,no,no,no,no,yes
no,no,no,no,no,no,no,no,yes
no,no,no,no,no,no,no,no,yes
no,no,no,no,no,no,no,no,yes
no,no,no,no,no,no,no,no,yes
no,no,no,no,no,no,no,no,yes
no,no,no,no,no,no,no,no,yes
no,no,no,no,no,no,no,no,yes
no,no,no,no,no,no,no,no,yes
no,no,no,no,no,no,no,no,yes
no,no,no,no,no,no,no,no,yes
no,no,no,no,no,no,no,no,yes
no,no,no,no,no,no,no,no,yes
no,no,no,no,no,no,no,yes,yes
no,no,no,no,no,no,no,no,yes
no,no,no,no,no,no,no,no,yes
no,no,no,no,no,no,no,yes,yes
no,no,no,no,no,no,no,no,yes
no,no,no,no,no,no,no,no,yes
no,no,no,no,no,no,no,no,yes
no,no,no,no,no,no,no,no,yes
no,no,no,no,no,no,no,no,yes
no,no,no,no,no,no,no,yes,yes
no,no,no,no,no,no,no,no,yes
no,no,no,no,no,no,no,no,yes
no,no,no,no,no,no,no,no,yes
no,no,no,no,no,no,no,no,yes
no,no,no,no,no,no,no,no,yes
no,no,no,no,no,no,no,no,yes
no,no,no,no,no,no,no,yes,yes
no,no,no,no,no,no,no,no,yes
no,no,no,no,no,no,no,no,yes
no,no,no,no,no,no,no,no,yes
no,no,no,no,no,no,no,no,yes
no,no,no,no,no,no,no,no,yes
no,no,no,no,no,no,no,no,yes
no,no,no,no,no,no,no,no,yes
no,no,no,no,no,no,no,yes,yes
no,no,no,no,no,no,no,no,yes
no,no,no,no,no,no,no,no,yes
no,no,no,no,no,no,no,no,yes
no,no,no,no,no,no,no,no,yes
no,no,no,no,no,no,no,no,yes
no,no,no,no,no,no,no,no,yes
no,no,no,no,no,no,no,no,yes
no,no,no,no,no,no,no,no,yes
no,no,no,no,no,no,no,no,yes
no,no,no,no,no,no,no,no,yes
no,no,no,no,no,no,no,yes,yes
no,no,no,no,no,no,no,no,yes
no,no,no,no,no,no,no,no,yes
no,no,no,no,no,no,no,no,yes
no,no,no,no,no,no,no,yes,yes
no,no,no,no,no,no,no,no,yes
no,no,no,no,no,no,no,yes,yes
no,no,no,no,no,no,no,no,yes
no,no,no,no,no,no,no,no,yes
no,no,no,no,no,no,no,no,yes
no,no,no,no,no,no,no,no,yes
no,no,no,no,no,no,no,no,yes
no,no,no,no,no,no,no,no,yes
no,no,no,no,no,no,no,no,yes
no,no,no,no,no,no,no,no,yes
no,no,no,no,no,no,no,no,yes
no,no,no,no,no,no,no,yes,yes
no,no,no,no,no,no,no,no,yes
no,no,no,no,no,no,no,no,yes
no,no,no,no,no,no,no,no,yes
no,no,no,no,no,no,no,no,yes
no,no,no,no,no,no,no,yes,yes
no,no,no,no,no,no,no,no,yes
no,no,no,no,no,no,no,no,yes
no,no,no,no,no,no,no,no,yes
no,no,no,no,no,no,no,no,yes
no,no,no,no,no,no,no,yes,yes
no,no,no,no,no,no,no,no,yes
no,no,no,no,no,no,no,no,yes
no,no,no,no,no,no,no,no,yes
no,no,no,no,no,no,no,yes,yes
no,no,no,no,no,no,no,no,yes
no,no,no,no,no,no,no,yes,yes
no,no,no,no,no,no,no,no,yes
no,no,no,no,no,no,no,no,yes
no,no,no,no,no,no,no,no,yes
no,no,no,no,no,no,no,no,yes
no,no,no,no,no,no,no,no,yes
no,no,no,no,no,no,no,yes,yes
no,no,no,no,no,no,no,no,yes
no,no,no,no,no,no,no,no,yes
no,no,no,no,no,no,no,no,yes
no,no,no,no,no,no,no,no,yes
no,no,no,no,no,no,no,no,yes
no,no,no,no,no,no,no,no,yes
no,no,no,no,no,no,no,yes,yes
no,no,no,no,no,no,no,no,yes
no,no,no,no,no,no,no,no,yes
no,no,no,no,no,no,no,no,yes
no,no,no,no,no,no,no,no,yes
no,no,no,no,no,no,no,no,yes
no,no,no,no,no,no,no,no,yes
no,no,no,no,no,no,no,yes,yes
no,no,no,no,no,no,no,no,no
no,no,no,no,no,no,no,no,no
no,no,no,no,no,no,no,no,yes
no,no,no,no,no,no,no,no,yes
no,no,no,no,no,no,no,no,yes
no,no,no,no,no,no,no,yes,yes
no,no,no,no,no,no,no,no,yes
no,no,no,no,no,no,no,no,yes
no,no,no,no,no,no,no,no,yes
no,no,no,no,no,no,no,no,yes
no,no,no,no,no,no,no,no,yes
no,no,no,no,no,no,no,yes,yes
no,no,no,no,no,no,no,no,yes
no,no,no,no,no,no,no,yes,yes
no,no,no,no,no,no,no,no,yes
no,no,no,no,no,no,no,no,yes
no,no,no,no,no,no,no,no,yes
no,no,no,no,no,no,no,no,yes
no,no,no,no,no,no,no,no,yes
no,no,no,no,no,no,no,no,yes
no,no,no,no,no,no,no,no,yes
no,no,no,no,no,no,no,no,yes
no,no,no,no,no,no,no,yes,yes
no,no,no,no,no,no,no,no,yes
no,no,no,no,no,no,no,no,yes
no,no,no,no,no,no,no,no,yes
no,no,no,no,no,no,no,no,yes
no,no,no,no,no,no,no,no,yes
no,no,no,no,no,no,no,yes,yes
no,no,no,no,no,no,no,no,yes
no,no,no,no,no,no,no,no,yes
no,no,no,no,no,no,no,no,yes
no,no,no,no,no,no,no,no,yes
no,no,no,no,no,no,no,no,yes
no,no,no,no,no,no,no,yes,yes
no,no,no,no,no,no,no,no,yes
no,no,no,no,no,no,no,no,yes
no,no,no,no,no,no,no,no,yes
no,no,no,no,no,no,no,no,yes
no,no,no,no,no,no,no,no,yes
no,no,no,no,no,no,no,yes,yes
no,no,no,no,no,no,no,no,yes
no,no,no,no,no,no,no,no,yes
no,no,no,no,no,no,no,yes,yes
no,no,no,no,no,no,no,no,yes
no,no,no,no,no,no,no,yes,yes
no,no,no,no,no,no,no,no,yes
no,no,no,no,no,no,no,no,yes
no,no,no,no,no,no,no,no,yes
no,no,no,no,no,no,no,no,yes
no,no,no,no,no,no,no,no,yes
no,no,no,no,no,no,no,no,yes
no,no,no,no,no,no,no,no,yes
no,no,no,no,no,no,no,yes,yes
no,no,no,no,no,no,no,no,yes
no,no,no,no,no,no,no,no,yes
no,no,no,no,no,no,no,yes,yes
no,no,no,no,no,no,no,no,yes
no,no,no,no,no,no,no,no,yes
no,no,no,no,no,no,no,no,yes
no,no,no,no,no,no,no,yes,yes
no,no,no,no,no,no,no,no,yes
no,no,no,no,no,no,no,yes,yes
no,no,no,no,no,no,no,no,yes
no,no,no,no,no,no,no,no,yes
no,no,no,no,no,no,no,no,yes
no,no,no,no,no,no,no,yes,yes
no,no,no,no,no,no,no,no,yes
no,no,no,no,no,no,no,no,yes
no,no,no,no,no,no,no,no,yes
no,no,no,no,no,no,no,no,yes
no,no,no,no,no,no,no,yes,yes
no,yes,no,no,no,no,no,no,no
no,no,no,no,no,no,no,no,yes
no,no,no,yes,no,no,no,no,no
no,no,no,no,no,no,no,no,yes
no,no,no,no,no,no,no,no,yes
no,no,no,no,no,no,no,yes,yes
no,no,no,no,yes,no,no,no,no
no,no,no,no,yes,no,no,no,no
no,no,no,no,yes,no,no,no,no
no,no,no,no,no,no,no,yes,yes
no,no,no,no,no,no,no,yes,yes
no,no,no,no,no,no,no,no,yes
no,no,no,no,no,yes,no,no,no
no,no,no,no,no,yes,no,no,no
no,no,no,no,no,no,no,yes,yes
no,no,no,no,no,no,no,no,no
no,no,no,no,no,no,no,no,no
no,no,no,no,no,no,no,no,yes
no,no,no,no,no,no,no,no,yes
no,no,no,no,no,no,no,no,yes
no,no,no,no,no,no,no,no,yes
no,no,no,no,no,no,no,yes,yes
no,no,no,no,no,no,no,no,yes
yes,no,no,no,no,no,no,no,no
yes,no,no,no,no,no,no,no,no
yes,no,no,no,no,no,no,no,no
no,no,no,no,no,no,no,yes,yes
no,no,no,no,no,no,no,no,no
no,no,no,no,no,no,no,no,yes
no,no,no,no,no,no,no,no,yes
no,no,no,no,yes,no,no,no,no
no,no,no,no,yes,no,no,no,no
no,no,no,no,no,no,no,no,yes
no,no,no,no,no,no,no,no,yes
no,no,no,no,no,no,no,no,yes
no,no,no,no,no,no,no,no,yes
no,no,no,no,yes,no,no,no,no
no,no,no,no,yes,no,no,no,no
no,no,no,no,no,no,no,yes,yes
no,no,no,yes,no,no,no,no,no
no,no,no,yes,no,no,no,no,no
no,no,no,no,no,no,no,yes,yes
no,no,no,yes,no,no,no,no,no
no,no,no,yes,no,no,no,no,no
no,no,no,no,no,no,no,no,yes
no,no,no,no,no,no,no,no,yes
no,no,no,yes,no,no,no,no,no
no,no,no,no,no,no,no,no,yes
no,no,no,no,no,no,no,no,yes
no,no,no,no,no,no,no,yes,yes
no,no,no,yes,no,no,no,no,no
no,no,no,no,no,no,no,no,yes
no,no,no,no,no,no,no,no,yes
no,no,no,no,no,no,no,no,yes
no,no,no,no,no,no,no,no,yes
no,no,no,no,no,no,no,yes,yes
no,no,no,no,no,no,no,no,yes
no,no,no,no,no,no,no,no,yes
no,no,no,no,no,no,no,no,yes
no,no,yes,no,no,no,no,no,no
no,no,yes,no,no,no,no,no,no
no,no,no,no,yes,no,no,no,no
yes,no,no,no,no,no,no,no,no
yes,no,no,no,no,no,no,no,no
yes,no,no,no,no,no,no,no,no
no,no,no,no,no,no,no,no,yes
no,no,no,no,no,no,no,yes,yes
no,no,no,no,no,no,no,no,yes
no,no,no,no,no,no,no,no,yes
no,no,no,no,no,no,no,no,yes
no,no,no,no,no,no,no,no,yes
no,no,no,no,no,no,no,no,yes
no,no,no,no,no,no,no,yes,yes
no,no,no,no,no,no,no,no,yes
no,no,no,no,no,no,no,no,no
yes,no,no,no,yes,no,no,no,no
no,no,no,yes,no,no,no,no,no
no,no,no,no,no,no,no,no,yes
no,no,no,no,no,no,no,yes,yes
no,no,no,no,no,no,no,no,yes
no,no,no,no,no,no,no,no,yes
no,no,no,no,no,no,no,no,yes
no,no,no,no,no,no,no,no,yes
no,no,no,no,no,no,no,yes,yes
no,no,no,no,no,no,no,no,yes
no,no,no,no,no,no,no,yes,yes
no,no,no,no,no,no,no,no,yes
no,no,no,yes,no,no,no,no,no
no,no,no,no,no,no,no,yes,yes
no,no,no,no,no,no,no,no,yes
no,no,no,no,no,no,no,no,yes
no,no,no,no,no,no,no,no,yes
no,no,no,no,no,no,no,yes,yes
no,no,no,no,no,no,no,no,yes
no,no,no,no,no,no,no,yes,yes
no,no,no,yes,no,no,no,no,no
no,no,no,no,no,no,no,no,yes
no,no,no,yes,no,no,no,no,no
no,no,no,yes,no,no,no,no,no
no,no,no,no,no,no,no,yes,yes
no,no,no,no,no,no,no,no,yes
no,no,no,no,no,no,no,no,yes
no,no,no,no,no,no,no,no,yes
no,no,no,no,no,no,no,no,yes
no,no,no,no,no,no,no,no,yes
no,no,no,no,no,no,no,no,yes
no,no,no,no,no,no,no,no,yes
no,no,no,no,no,no,no,yes,yes
no,no,no,no,no,no,no,no,yes
no,no,no,no,no,no,no,no,yes
no,no,no,no,no,no,no,yes,yes
no,no,no,no,no,no,no,no,yes
no,no,no,no,no,no,no,yes,yes
no,no,no,no,no,no,no,no,yes
no,no,no,no,no,no,no,no,yes
no,no,no,no,no,no,no,yes,yes
no,no,no,no,no,no,no,no,yes
no,no,no,no,no,no,no,yes,yes
no,no,no,no,no,no,no,no,yes
no,no,no,no,no,no,no,no,yes
no,no,no,no,no,no,no,yes,yes
no,no,no,no,no,no,no,no,yes
no,no,no,no,no,no,no,no,yes
no,no,no,no,no,no,no,no,yes
no,no,no,no,no,no,no,no,yes
no,no,no,no,no,no,no,no,yes
no,no,no,no,no,no,no,no,yes
no,no,no,no,no,no,no,yes,yes
no,no,no,no,no,no,no,no,yes
no,no,no,yes,no,no,no,no,no
no,no,no,no,no,no,no,no,yes
no,no,no,no,no,no,no,no,yes
no,no,no,no,no,no,no,no,yes
no,no,no,no,no,no,no,yes,yes
no,no,no,no,no,no,no,no,yes
no,no,no,no,no,no,no,no,yes
no,no,no,no,no,no,no,no,yes
no,no,no,no,no,no,no,yes,yes
no,no,no,no,no,no,no,no,yes
no,no,no,no,no,no,no,no,yes
no,no,no,no,no,no,no,no,no
no,no,no,no,no,no,no,no,yes
no,no,no,no,no,no,no,no,no
no,no,no,no,no,no,no,no,yes
no,no,no,no,no,no,no,no,yes
no,no,no,no,no,no,no,yes,yes
no,no,no,no,no,no,no,no,yes
no,no,no,no,no,no,no,no,yes
no,no,no,no,no,no,no,yes,yes
no,no,no,no,no,no,no,no,no
no,no,no,no,no,no,no,no,yes
no,no,no,no,no,no,no,no,no
no,no,no,no,no,no,no,no,yes
no,no,no,no,no,no,no,yes,yes
no,no,no,no,no,no,no,no,yes
no,no,no,no,no,no,no,no,yes
no,no,no,no,no,no,no,no,yes
no,no,no,no,no,no,no,no,yes
no,no,no,no,no,no,no,yes,yes
no,no,no,no,no,no,no,no,yes
no,no,no,no,no,no,no,no,yes
no,no,no,no,no,no,no,no,yes
no,no,no,no,no,no,no,no,yes
no,no,no,no,no,no,no,no,yes
no,no,no,no,no,no,no,no,yes
no,no,no,no,no,no,no,no,yes
no,no,no,no,no,no,no,no,yes
no,no,no,no,no,no,no,no,no
no,no,no,yes,no,no,no,no,no
no,no,no,no,no,no,no,no,yes
no,no,no,no,no,no,no,no,yes
no,no,no,no,no,no,no,yes,yes
no,no,no,no,no,no,no,no,yes
no,no,no,no,no,no,no,no,yes
no,no,no,no,no,no,no,no,yes
no,no,no,no,no,no,no,yes,yes
no,no,no,no,no,no,no,no,yes
no,no,no,no,no,no,no,no,yes
no,no,no,no,no,no,no,no,yes
no,no,no,no,no,no,no,yes,yes
no,no,no,no,no,no,no,no,yes
no,no,no,no,no,no,no,no,yes
no,no,no,no,no,no,no,yes,yes
no,no,no,no,no,no,no,no,yes
no,no,no,no,no,no,no,no,yes
no,no,no,no,no,no,no,no,yes
no,no,no,no,no,no,no,no,yes
no,no,no,no,no,no,no,yes,yes
no,no,no,no,no,no,no,no,yes
no,no,no,no,no,no,no,no,no
no,no,no,no,yes,no,no,no,no
no,no,no,no,no,no,no,yes,yes
no,no,no,no,no,no,no,yes,yes
no,no,no,no,no,no,no,no,yes
no,no,no,no,no,no,no,no,yes
no,no,no,no,no,no,no,no,yes
no,no,no,no,no,no,no,no,no
no,no,no,no,no,no,no,no,yes
no,no,no,no,no,no,no,no,yes
no,no,no,no,no,no,no,no,yes
no,no,no,no,no,no,no,yes,yes
no,no,no,no,no,no,no,no,yes
no,no,no,no,no,no,no,no,no
no,no,no,no,yes,no,no,no,no
no,no,no,no,no,no,no,yes,yes
no,no,no,no,no,no,no,no,yes
no,no,no,no,no,no,no,no,yes
no,no,no,no,no,no,no,yes,yes
no,no,no,no,no,no,no,no,yes
no,no,no,no,no,no,no,no,yes
no,no,no,no,no,no,no,yes,yes
no,no,no,no,no,no,no,yes,yes
no,no,no,no,no,no,no,no,yes
no,no,no,no,no,no,no,yes,yes
no,no,no,no,no,no,no,yes,yes
no,no,no,no,no,no,no,no,yes
no,no,no,no,no,no,no,no,yes
no,no,no,no,no,no,no,no,yes
no,no,no,no,no,no,no,yes,yes
no,no,no,no,no,no,no,no,yes
no,no,no,no,no,no,no,no,no
no,no,no,no,no,no,no,no,no
no,no,no,no,no,no,no,no,yes
no,no,no,no,no,no,no,yes,yes
no,no,no,no,no,no,no,yes,yes
no,no,no,no,no,no,no,no,yes
no,no,no,no,no,no,no,no,yes
no,no,no,no,no,no,no,no,no
no,no,no,no,no,no,no,no,no
no,no,no,no,no,no,no,yes,yes
no,no,no,no,no,no,no,yes,yes
no,no,no,no,no,no,no,no,yes
no,no,no,no,no,no,no,no,yes
no,no,no,no,no,no,no,no,no
no,no,no,no,no,no,no,no,no
no,no,no,no,no,no,no,no,yes
no,no,no,no,no,no,no,no,yes
no,no,no,no,no,no,no,yes,yes
no,no,no,no,no,no,no,no,yes
no,no,no,no,no,no,no,no,no
no,no,no,no,no,no,no,no,no
no,no,no,no,no,no,no,no,yes
no,no,no,no,no,no,no,no,no
no,no,no,no,no,no,no,no,no
no,no,no,no,no,no,no,no,yes
no,no,no,no,no,no,no,no,no
no,no,no,no,no,no,no,no,no
no,no,no,no,no,no,no,no,yes
no,no,no,no,no,no,no,no,no
no,no,no,no,no,no,no,no,no
no,no,no,no,no,no,no,no,yes
no,no,no,no,no,no,no,no,yes
no,no,no,no,no,no,no,no,yes
no,no,no,no,no,no,no,no,no
no,no,no,no,no,no,no,no,no
no,no,no,no,no,no,no,no,yes
no,no,no,no,no,no,no,no,no
no,no,no,no,no,no,no,no,no
no,no,no,no,no,no,no,no,yes
no,no,no,no,no,no,no,no,no
no,no,no,no,no,no,no,no,no
no,no,no,no,no,no,no,no,yes
no,no,no,no,no,no,no,no,no
no,no,no,no,no,no,no,no,no
no,no,no,no,no,no,no,no,yes
no,no,no,no,no,no,no,no,yes
no,no,no,no,no,no,no,no,no
no,no,no,no,no,no,no,no,no
no,no,no,no,no,no,no,yes,yes
no,no,no,no,no,no,no,no,no
no,no,no,no,no,no,no,no,no
no,no,no,no,no,no,no,no,yes
no,no,no,no,no,no,no,no,no
no,no,no,no,no,no,no,no,no
no,no,no,no,no,no,no,no,yes
no,no,no,no,no,no,no,yes,yes
no,no,no,no,no,no,no,no,yes
no,no,no,no,no,no,no,no,yes
no,no,no,no,no,no,no,no,yes
no,no,no,no,no,no,no,yes,yes
no,no,no,no,no,no,no,yes,yes
no,no,no,no,no,no,no,no,yes
no,no,no,no,no,no,no,yes,yes
no,no,no,no,no,no,no,no,yes
no,no,no,no,no,no,no,no,yes
no,no,no,no,no,no,no,no,no
no,no,no,no,no,no,no,no,no
no,no,no,no,no,no,no,no,yes
no,no,no,no,no,no,no,no,no
no,no,no,no,no,no,no,no,no
no,no,no,no,no,no,no,no,yes
no,no,no,no,no,no,no,yes,yes
no,no,no,no,no,no,no,no,yes
no,no,no,no,no,no,no,no,no
no,no,no,no,no,no,no,no,no
no,no,no,no,no,no,no,no,yes
no,no,no,no,no,no,no,no,no
no,no,no,no,no,no,no,no,no
no,no,no,no,no,no,no,yes,yes
no,no,no,no,no,no,no,no,no
no,no,no,no,no,no,no,no,no
no,no,no,no,no,no,no,yes,yes
no,no,no,no,no,no,no,yes,yes
no,no,no,no,no,no,no,no,no
no,no,no,no,no,no,no,no,no
no,no,no,no,no,no,no,yes,yes
no,no,no,no,no,no,no,no,no
no,no,no,no,no,no,no,no,no
no,no,no,no,no,no,no,yes,yes
no,no,no,no,no,no,no,no,no
no,no,no,no,no,no,no,no,no
no,no,no,no,no,no,no,yes,yes
no,no,no,no,no,no,no,no,no
no,no,no,no,no,no,no,no,no
no,no,no,no,no,no,no,no,yes
no,no,no,no,no,no,no,no,no
no,no,no,no,no,no,no,no,no
no,no,no,no,no,no,no,no,yes
no,no,no,no,no,no,no,no,yes
no,no,no,no,no,no,no,no,no
no,no,no,no,no,no,no,no,no
no,no,no,no,no,no,no,no,no
no,no,no,no,no,no,no,no,yes
no,no,no,no,no,no,no,yes,yes
no,no,no,no,no,no,no,no,yes
no,no,no,no,no,no,no,no,yes
no,no,no,no,no,no,no,yes,yes
no,no,no,no,no,no,no,no,no
no,no,no,no,no,no,no,no,no
no,no,no,no,no,no,no,no,yes
no,no,no,no,no,no,no,no,yes
no,no,no,no,no,no,no,no,yes
no,no,no,no,no,no,no,no,yes
no,no,no,no,no,no,no,no,yes
no,no,no,no,no,no,no,no,yes
no,no,no,no,no,no,no,no,yes
no,no,no,no,no,no,no,yes,yes
no,no,no,no,no,no,no,no,no
no,no,no,no,no,no,no,no,no
no,no,no,no,no,no,no,no,yes
no,no,no,no,no,no,no,no,yes
no,no,no,no,no,no,no,no,yes
no,no,no,no,no,no,no,no,no
no,no,no,no,no,no,no,no,no
no,no,no,no,no,no,no,yes,yes
no,no,no,no,no,no,no,yes,yes
no,no,no,no,no,no,no,yes,yes
no,no,no,no,no,no,no,yes,yes
no,no,no,no,no,no,no,no,yes
no,no,no,no,no,no,no,no,no
no,no,no,no,no,no,no,no,no
no,no,no,no,no,no,no,yes,yes
no,no,no,no,no,no,no,no,yes
no,no,no,no,no,no,no,yes,yes
no,no,no,no,no,no,no,no,yes
no,no,no,no,no,no,no,yes,yes
no,no,no,no,no,no,no,no,no
no,no,no,no,no,no,no,no,no
no,no,no,no,no,no,no,no,yes
no,no,no,no,no,no,no,yes,yes
no,no,no,no,no,no,no,yes,yes
no,no,no,no,no,no,no,yes,yes
no,no,no,no,no,no,no,yes,yes
no,no,no,no,no,no,no,yes,yes
no,no,no,no,no,no,no,no,yes
no,no,no,no,no,no,no,no,yes
no,no,no,no,no,no,no,no,yes
no,no,no,no,no,no,no,yes,yes
no,no,no,no,no,no,no,no,no
no,no,no,no,no,no,no,no,no
no,no,no,no,no,no,no,yes,yes
no,no,no,no,no,no,no,no,yes
no,no,no,no,no,no,no,no,yes
no,no,no,no,no,no,no,no,yes
no,no,no,no,no,no,no,no,yes
no,no,no,no,no,no,no,no,yes
no,no,no,no,no,no,no,yes,yes
no,no,no,no,no,no,no,yes,yes
no,no,no,no,yes,no,no,no,no
no,no,no,no,yes,no,no,no,no
no,no,no,no,yes,no,no,no,no
no,no,no,no,yes,no,no,no,no
no,no,no,no,yes,no,no,no,no
no,no,no,no,yes,no,no,no,no
no,no,no,no,no,no,no,yes,yes
no,no,no,no,yes,no,no,no,no
no,no,no,no,yes,no,no,no,no
no,no,no,no,yes,no,no,no,no
no,no,no,no,no,no,no,no,no
no,no,no,no,no,no,no,yes,yes
no,no,no,no,yes,no,no,no,no
no,no,no,no,no,no,no,no,no
no,no,no,no,no,no,no,no,yes
no,no,no,no,no,no,no,no,yes
no,no,no,no,no,no,no,no,no
no,no,no,yes,no,no,no,no,no
no,no,no,yes,no,no,no,no,no
no,no,no,yes,no,no,no,no,no
no,no,no,no,no,no,no,no,yes
no,no,no,no,no,no,no,yes,yes
no,no,no,no,no,no,no,yes,yes
no,no,no,no,no,no,no,no,yes
no,no,no,no,yes,no,no,no,no
no,no,no,no,no,no,no,yes,yes
no,no,no,no,no,no,no,no,no
no,no,no,no,no,no,no,yes,yes
no,no,no,no,no,no,no,no,yes
no,no,no,no,yes,no,no,no,no
no,no,no,no,no,no,no,yes,yes
no,no,no,no,no,no,no,no,yes
yes,no,no,no,no,no,no,no,no
yes,no,no,no,no,no,no,no,no
yes,no,no,no,no,no,no,no,no
yes,no,no,no,no,no,no,no,no
yes,no,no,no,no,no,no,no,no
yes,no,no,no,no,no,no,no,no
yes,no,no,no,no,no,no,no,no
no,no,no,no,yes,no,no,no,no
no,no,no,no,no,no,no,no,no
no,no,no,yes,no,no,no,no,no
no,no,no,yes,no,no,no,no,no
no,no,no,yes,no,no,no,no,no
no,no,no,no,no,no,no,no,yes
no,no,no,no,yes,no,no,no,no
no,no,no,no,yes,no,no,no,no
no,no,no,no,yes,no,no,no,no
no,no,no,no,no,no,no,yes,yes
no,no,no,no,no,no,no,no,yes
no,no,no,no,no,no,no,yes,yes
no,no,no,no,yes,no,no,no,no
no,no,no,no,yes,no,no,no,no
no,no,no,no,yes,no,no,no,no
no,no,no,no,no,no,no,no,yes
yes,no,no,no,no,no,no,no,no
no,no,no,no,no,no,no,yes,yes
no,no,no,no,yes,no,no,no,no
yes,no,no,no,no,no,no,no,no
yes,no,no,no,no,no,no,no,no
yes,no,no,no,no,no,no,no,no
no,no,no,no,yes,no,no,no,no
no,no,no,no,yes,no,no,no,no
no,no,no,no,yes,no,no,no,no
no,no,no,no,no,no,no,yes,yes
no,no,no,no,no,no,no,no,no
no,no,no,yes,no,no,no,no,no
no,no,no,yes,no,no,no,no,no
no,no,no,yes,no,no,no,no,no
no,no,no,no,yes,no,no,no,no
no,no,no,no,yes,no,no,no,no
no,no,no,no,no,no,no,no,no
no,no,no,no,no,no,no,no,yes
no,no,no,no,no,no,no,no,no
no,no,no,no,no,no,no,no,yes
yes,no,no,no,no,no,no,no,no
yes,no,no,no,no,no,no,no,no
yes,no,no,no,no,no,no,no,no
no,no,no,no,no,no,no,yes,yes
no,no,no,no,no,no,no,no,yes
no,no,no,no,no,no,no,no,yes
no,no,no,no,no,no,no,no,yes
no,no,no,no,no,no,no,yes,yes
no,no,no,no,yes,no,no,no,no
no,no,no,no,no,no,no,no,yes
no,no,no,no,yes,no,no,no,no
no,no,no,no,yes,no,no,no,no
no,no,no,no,no,no,no,no,yes
no,no,no,no,no,no,no,yes,yes
no,no,no,no,yes,no,no,no,no
no,no,no,no,no,no,no,yes,yes
no,no,no,no,no,no,no,no,no
no,no,no,yes,no,no,no,no,no
no,no,no,yes,no,no,no,no,no
no,no,no,yes,no,no,no,no,no
no,no,no,no,no,no,no,no,yes
no,no,no,no,no,no,no,no,no
no,no,no,no,no,no,no,no,no
no,no,no,no,no,no,no,no,yes
no,no,no,no,no,no,no,no,no
no,no,no,no,no,no,no,yes,yes
no,no,no,no,no,no,no,yes,yes
no,no,no,no,no,no,no,yes,yes
no,no,no,no,no,no,no,yes,yes
no,no,no,no,no,no,no,no,yes
no,no,no,no,no,no,no,yes,yes
no,no,no,no,no,no,no,yes,yes
no,no,no,no,no,no,no,no,no
no,no,no,yes,no,no,no,no,no
no,no,no,yes,no,no,no,no,no
no,no,no,yes,no,no,no,no,no
no,no,no,no,no,yes,no,no,no
no,no,no,no,no,yes,no,no,no
no,no,no,no,no,no,no,no,yes
no,no,no,no,no,no,no,no,yes
no,no,yes,no,no,no,no,no,no
no,no,yes,no,no,no,no,no,no
no,no,yes,no,no,no,no,no,no
no,no,yes,no,no,no,no,no,no
no,no,yes,no,no,no,no,no,no
no,no,no,yes,no,no,no,no,no
no,no,no,yes,no,no,no,no,no
no,no,no,no,no,no,no,no,yes
no,no,no,no,no,no,no,no,yes
no,no,no,no,no,no,no,no,yes
no,no,no,yes,no,no,no,no,no
no,no,no,yes,no,no,no,no,no
no,no,no,no,no,no,no,no,yes
no,no,no,yes,no,no,no,no,no
no,no,no,yes,no,no,no,no,no
no,no,no,no,no,no,no,no,yes
no,no,yes,no,no,no,no,no,no
no,no,yes,no,no,no,no,no,no
no,no,yes,no,no,no,no,no,no
no,no,yes,no,no,no,no,no,no
no,no,no,no,no,no,no,yes,yes
